{"count":2958,"next":"https://a101.ru/api/flats/?limit=1&offset=1&order=actual_price","previous":null,"results":[{"id":78303,"project":"Родные кварталы","project_commercial":"Жилой комплекс  «Родные кварталы»","project_commercial_short_name":"Родные кварталы","project_slug":"rodniye-kvartaly","project_group":{"id":3,"name":"Родные кварталы","slug":""},"building":"2","building_number":"2","building_realized":false,"building_stage_rve_date":"2 кв. 2026","start_sales":false,"stage":"3 кв. 2026","stage_key_transfer_date":"III квартал 2026 г.","section_number":"6","floor":"5","floor_hover":"1051,620.8 1051,541.2 1553.7,541.3 1553.7,622.7","floor_plan":"https://cdn.a101.ru/mmedia/realty/floor/plan_image/1847ae441609487899c1a4b4e734c93507c7bf96.png","floor_plan_png":null,"floor_plan_width":1900,"floor_plan_height":1449,"max_floor":9,"article":"96К-2-257","status":4,"realty_class":"comfort","room":1,"room_name":"Студия","number_on_floor":2,"room_type":[],"studio":true,"patio":false,"euro":false,"mezzanine_apartment":false,"big_layout":"https://cdn.a101.ru/mmedia/p/p/bl/9ef41d98c4.svg","big_layout_png":null,"big_layout_jpg":null,"mini_floor_plan":"https://cdn.a101.ru/mmedia/p/p/mfp/a067935478.svg","mini_floor_plan_png":null,"furniture_layout":"https://cdn.a101.ru/mmedia/p/p/fl/64d51418e7.svg","furniture_layout_png":null,"design_layout":null,"design_layout_png":null,"ignore_update":false,"first_name":"","patronymic_name":"","last_name":"","area":20.6,"increased_ceiling_height":false,"ceiling_height":2.95,"price":8793728,"actual_price":6947144,"ppm":426880,"actual_ppm":337240,"base_price":8793728,"special_base_price":7713876,"special_price":7713876,"special_ppm":374460,"special_ppm_without_interior":374460,"sale_value":21.0,"number":257,"design":false,"has_free_design":false,"whitebox":false,"has_balcony":true,"has_dressing_room":true,"has_terrace":false,"is_two_level":false,"two_bathrooms":false,"two_windows_room":false,"bathroom_window":false,"view_apartment":false,"master_bedroom":false,"hightflat":false,"view_apartment_water":false,"view_apartment_forest_park":false,"view_apartment_boulevard":false,"view_apartment_courtyard":false,"promo_rent":false,"promo_rent_amount":0,"rshb":null,"mortgage_min_payment":24925,"mindbox_offer_id":"96К-2-257","hover":"1251.79,691.46 1224.89,691.46 1224.89,718.36 1153.14,718.36 1153.14,879.9 1251.79,879.9 \r\n\t1251.79,1255.16 1263.45,1255.16 1263.45,1326.51 1518.16,1326.51 1518.16,1255.16 1529.82,1255.16 1529.82,866.07 1529.82,691.46","hover_second_floor":"","window_view":{"id":663,"image":"https://cdn.a101.ru/mmedia/b/b/wvp/3aa5214039.jpg","ppoi":["46","71"],"angles":[{"id":2058,"angle":271}]},"type":"flat","daily_count_views":41,"flatsplan_type":"СТ"}]}