{"count":1682,"next":"http://level.ru/api/flat/?limit=1&offset=1","previous":null,"results":[{"spacebti":null,"spacedesign":191.7,"area":191.7,"bti_diff_area":0.0,"bti_number_alt":"7Н","operation_date":"2025-12-26T00:00:00+03:00","sumbti":0.0,"pk":58772,"ref_id":"d192a161-5367-ed11-8102-005056010f28","crm_site_id":"d192a161-5367-ed11-8102-005056010f28","status":1,"filter_order":5,"number":"2-Н1","ceilingheight":"3.02","room":5,"balconies":null,"bathroomtoilet":null,"bathroomseparate":null,"building_id":1086,"building":"B","project":"Бауманская","has_prefix_level":true,"completion_quarter":1,"completion_year":2026,"completion_date_passed":true,"floor":1,"floor_width":1920,"floor_height":1080,"floor_2_width":null,"floor_2_height":null,"floor_hover":"<polygon points=\"1049.2,868.1 1296.4,912.5 1446.7,874.4 1446.7,929.4 1299.3,976.8 1049.2,922.5 \t\"/>","building_mobile_hover":"1050,214 1050,298 1048,298 1048,305 1050,305 1050,336 1048,336 1048,344 1050,344 1050,374 \r\n\t\t1048,374 1048,381 1050,381 1050,412 1048,412 1048,418.9 1050,418.9 1050,450 1048,450 1048,457 1050,457 1050,488 1048,488 \r\n\t\t1048,495 1050,495 1050,526 1048,526 1048,533 1050,533 1050,564 1048,564 1048,572 1050,572 1050,602 1048,602 1048,610 1050,610 \r\n\t\t1050,640 1048,640 1048,648 1050,648 1050,678 1048,678 1048,686 1050,686 1050,716 1048,716 1048,724 1050,724 1050,754 1048,754 \r\n\t\t1048,762 1050,762 1050,792 1048,792 1048,800 1050,800 1050,830 1048,830 1048,838 1050,838 1050,868 1048,868 1048,876 1050,876 \r\n\t\t1050,923 1300,977 1449,929 1449,863 1446,863 1446,807 1449,807 1449,785 1446,785 1446,728 1449,728 1449,707 1446,707 1446,650 \r\n\t\t1449,650 1449,628 1446,628 1446,571 1449,571 1449,550 1446,550 1446,488 1449,488 1449,471 1446,471 1446,410 1449,410 1449,392 \r\n\t\t1447,392 1447,336 1449,336 1449,314 1447,314 1447,204 1430,198 1430,195 1406,187 1406,164 1300,128 1297,128 1078,181 1078,207","floors_total":null,"has_discount":true,"discount_plus_percent":null,"has_one_percent_discount":false,"has_cashback_mortgage":false,"old_price":81372046.0,"price":65097637,"ppm":339580,"old_ppm":339580,"flat_type":"bauman-siti-haus","plan":"https://cdn.level.ru/media/core/flat/plane_png/8ecd21f9f1faef44e75aded898c2c7d81e60dd90.png","marketing_plan":"https://cdn.level.ru/media/realty/flat/marketing_plan/257236c38274b0de3b2fc6e22267f4275114d167.jpg","plan_3d_visualization":null,"plan_3d":null,"floor_plan":"https://cdn.level.ru/media/floor/plan_png/bec2a35880a9e734929d66feb60b62fe466851c9.png","more_floor_plan_info":{"plan_height":1080,"plan_width":1920,"plan":"https://cdn.level.ru/media/floor/plan/7f70626e89309d39b2cb8a3f7da3c5e0a295e064.svg","mini_plan":null,"pantry_plan":null,"plan_2_floor":null,"plan_width_2_floor":null,"plan_height_2_floor":null,"number":1},"white_plan":null,"alter_plan_1":null,"alter_plan_1_2nd_floor":null,"alter_plan_2":null,"alter_plan_2_2nd_floor":null,"alter_plan_3":null,"alter_plan_3_2nd_floor":null,"alter_plan_4":null,"alter_plan_4_2nd_floor":null,"alter_room_1":null,"alter_room_2":null,"alter_room_3":null,"alter_room_4":null,"plan_2_floor_for_flat":"https://cdn.level.ru/media/core/flat/plane/d8d2677ae4c978a42c07b0319cd743654f57f1d3.svg","plan_3d_2_floor_for_flat":null,"plan_2_floor_for_floor":"https://cdn.level.ru/media/core/flat/plane/184aa0c5aa8c42070fbeeb48083b1c4af032cd01.svg","hover":"410.3,533.4 410.3,504.9 406.3,504.9 406.3,404.3 410.3,404.3 410.3,382.3 392.5,382.3     392.5,44.6 901.1,44.6 901.1,359.3 711.9,359.3 711.9,533.8","hover_facade":"","hover_2_floor":"359,532.9 359,509.5 351.2,509.5 351.2,506.9 351.6,506.9 351.6,397.1 359,397.1 359,336 \r\n\t\t351.2,336 351.2,333.7 351.6,333.7 351.6,223.7 359,223.7 359,162.6 351.5,162.6 351.5,50.2 359,50.2 359,39.2 370,39.2 370,32.1 \r\n\t\t482.4,32.1 482.4,39.2 543.4,39.2 543.4,32.1 655.9,32.1 655.9,39.2 716.9,39.2 716.9,32.1 829.3,32.1 829.3,39.3 872.3,39.3 \r\n\t\t872.3,471.3 662.5,471.3 662.5,532.9","flat_of_the_day":false,"mode":0,"discount_value":20.0,"discount_end":"2026-05-31T20:30:00+03:00","discount_from_special_mortgage_offer":null,"additional_discount":null,"is_remarkable":false,"view_images":[],"transformer":false,"is_apartment":true,"mindbox_flats_entrypoint":"baumanskay","mindbox_entrypoint":"baumanskay","sale":false,"new":false,"show_price":true,"white_box":false,"has_lodge":false,"has_mollywindow":false,"has_multispace":false,"has_master_bedroom":false,"object_type":"flat","section_title":"1-1","phase_is_finished":true,"is_finished":false,"panorama":[],"new_panorama":null,"panorama_image":null,"blocked_window_view":false,"windows_located":"двор, окружающая застройка","windows_directions":"Север, Запад","floors_section_total":null,"project_slug":"bauman","is_verbal_booking":false,"costdesignfinishes":null,"nameplates":[],"has_laundry_room":false,"has_dressing_room":false,"has_alcove_for_bed":false,"increased_number_of_windows":0,"number_of_sides":1,"shield_text":"","shield_color":"","shield_link":"","house_handed":null,"building_finished":true,"is_united":false,"compass_angle":0,"compass_angle_floor":0,"is_compass_rotate":false,"plan_workspace":null,"complex_view":null,"full_payment_price":65097637,"is_cession":false,"building_genplan":"https://cdn.level.ru/media/building/render/e8ae40356c8e033cca1b3bb84a89a509544369d9.jpg","building_genplan_width":1920.0,"building_genplan_height":1080.0,"building_point":"","section_genplan":null,"section_genplan_width":null,"section_genplan_height":null,"section_point":"","can_be_booked":false,"galery":[{"flatgalerysection_set":[{"flatgaleryphoto_set":[{"order":0,"photo_display":"https://cdn.level.ru/media/CACHE/images/flat/galery/a164eefc3089008270429a9d2be5b07be014b39a/40f551834e333e9666f45d0b35fc5bfc.jpg","photo_preview":"https://cdn.level.ru/media/CACHE/images/flat/galery/a164eefc3089008270429a9d2be5b07be014b39a/f4476eaa11b201e666b5fbea939dc946.jpg"},{"order":1,"photo_display":"https://cdn.level.ru/media/CACHE/images/flat/galery/0bb5a94177a0c85472ab590535ee6d5f8490d8de/58473e26c97e29b3432257aea05467dc.jpg","photo_preview":"https://cdn.level.ru/media/CACHE/images/flat/galery/0bb5a94177a0c85472ab590535ee6d5f8490d8de/4b0d751290f1eb02352ffcad9f2f9233.jpg"}],"order":0,"name":"Фасады"},{"flatgaleryphoto_set":[{"order":0,"photo_display":"https://cdn.level.ru/media/CACHE/images/flat/galery/a55b33e6f9202af2579b544b9f29b900d1f101ac/fecde103b4ea53b94a554c41a5f842d0.jpg","photo_preview":"https://cdn.level.ru/media/CACHE/images/flat/galery/a55b33e6f9202af2579b544b9f29b900d1f101ac/543fab4ed229bb1537ca4ff0de08b3e9.jpg"},{"order":1,"photo_display":"https://cdn.level.ru/media/CACHE/images/flat/galery/b62f4debbbbe426bbdc451f54a889bb0aa171668/8822716438848d5ced55019f3fa1764b.jpg","photo_preview":"https://cdn.level.ru/media/CACHE/images/flat/galery/b62f4debbbbe426bbdc451f54a889bb0aa171668/93e26ab22b8a7e80bee9aba63537e71a.jpg"}],"order":1,"name":"Благоустройство"}],"project":40,"building":null,"renovation":null,"rare_format_type":null,"all_flats":true,"rooms":[],"flats":[],"youtube_link":null,"order":0,"using_for_fav_pdf_1":false,"using_for_fav_pdf_2":false},{"flatgalerysection_set":[{"flatgaleryphoto_set":[{"order":1,"photo_display":"https://cdn.level.ru/media/CACHE/images/flat/galery/b1e205ebec19c59e48f584d9870f124ed87d2084/e684f058a564a75570ed867692dc41a3.jpg","photo_preview":"https://cdn.level.ru/media/CACHE/images/flat/galery/b1e205ebec19c59e48f584d9870f124ed87d2084/9fc6a2766167bd3fe0770a93cc8cf5dd.jpg"},{"order":2,"photo_display":"https://cdn.level.ru/media/CACHE/images/flat/galery/ca86c441c145bcfc0bc8855a049ba0b7d8b3cb51/e887ed84d78f2ba094013d2af9cdd855.jpg","photo_preview":"https://cdn.level.ru/media/CACHE/images/flat/galery/ca86c441c145bcfc0bc8855a049ba0b7d8b3cb51/e9b83d65efe2f49cb2279dfd5c4b0d68.jpg"}],"order":1,"name":"Лобби"}],"project":40,"building":1086,"renovation":null,"rare_format_type":null,"all_flats":true,"rooms":[],"flats":[],"youtube_link":null,"order":1,"using_for_fav_pdf_1":false,"using_for_fav_pdf_2":false}],"has_parking":false,"has_storage":false,"is_premium":false,"on_general_plan":null,"rare_format_type":"двухуровневая, окна в пол, двухэтажный лофт, просторные квартиры от 75 м²","rare_format_list":["is_city_house","has_2_floor","has_floor_to_ceiling_windows","75m"],"rare_format_display_name":"Двухуровневые апартаменты","address":"г. Москва, Большая Почтовая&nbsp;ул., вл.&nbsp;18","location":"55.776688,37.695878","url":"/bauman/apartment/5room/2-N1/","renovation":"Без отделки","renovation_name":"0","renovation_type_name":null,"visualization_link":null,"visualization_preview":null,"visualization_shield":{"title":"","description":"","plan":null,"alt":""},"family_mortgage_label":"Семейная ипотека","family_mortgage":null,"family_mortgage_price":null,"cashback_mortgage":null,"cashback_mortgage_price":null,"flat_marketing_pictures":[{"description":"Индивидуальный вход с&nbsp;порога отделяет ваш мир от&nbsp;городского шума","picture":"https://cdn.level.ru/media/flat/marketing_picture/9d730fa4dbfea3da8c3194605df9a286b841edf0.jpg","picture_for_filter":null,"order":1},{"description":"Потолки&nbsp;3,02&nbsp;м для творческих и&nbsp;смелых решений","picture":"https://cdn.level.ru/media/flat/marketing_picture/3873a5f955827cb1805cb0083a449761e33824c0.jpg","picture_for_filter":null,"order":2},{"description":"Естественное освещение и&nbsp;вид за&nbsp;окном наполняют пространство вдохновением","picture":"https://cdn.level.ru/media/flat/marketing_picture/4525a2e2ecff722738d0b47a83204062f82e9c15.jpg","picture_for_filter":null,"order":3},{"description":"Персональное зонирование для реализации любых ваших идей","picture":"https://cdn.level.ru/media/flat/marketing_picture/d47e1de1e14690934a2b1a5113e6eb7e0dad7193.jpg","picture_for_filter":null,"order":4}],"is_outstanding_apartment":true,"show_on_site":true,"city":"moscow","customflatshield_set":[],"specialmortgageoffer_set":[],"zero_installment":{},"total_area":185.5,"terrace_area":null}],"price_extend":{"count":1682,"url":"http://level.ru/old/filter/?limit=1&offset=0&price_0=1614451633&price_1=1614751632"},"project_name":null}